[
    {
        "title": "Added changelogs!",
        "description": "Added the ability to see changelogs using the ?changelog command!"
    },
    {
        "title": "Changed ?move behaviour",
        "description": "Added the ability to search for channels by their name, instead of the dodgy mentioning by ID"
    },
    {
        "title": "Removed ?tell command",
        "description": "Removed the tell command as it can be used to make the bot pretty much say anything :D"
    },
    {
        "title": "Fixed ping command",
        "description": "Ping command now doesn't display all the weird numbers at the end"
    },
    {
        "title": "Improve eval command",
        "description": "Prevent exposing tokens in the eval command"
    },
    {
        "title": "Add support for command aliases!",
        "description": "Long overdue, but there's now a way for me to easily implement alises to certain commands!"
    },
    {
        "title": "Update documentation",
        "description": "New documentation theme, and general ease of use"
    },
    {
        "title": "Fix settings command",
        "date": 1626463097298,
        "description": "Settings command now *works* again!"
    },
    {
        "title": "Allow uploading of logs",
        "date": 1626466715658,
        "description": "Allow use of the ?log command to upload the logs to the server for easy access"
    },
    {
        "title": "Update changelog command",
        "date": 1627052783042,
        "description": "[Comprehensive changelogs aren't so ugly now](https://jambot.jaminit.co.uk/#/changelog)"
    },
    {
        "title": "Commands in dms!",
        "date": 1627147879710,
        "description": "Certain commands can now be run in dms, hurray!"
    },
    {
        "title": "Update changelog command (again!)",
        "date": 1627148595911,
        "description": "The changelog command now shows the date of the change!"
    },
    {
        "title": "Changelog command updates",
        "date": 1627566190805,
        "description": "Little one: changelogs now use discord timestamps"
    },
    {
        "title": "Remove autorole",
        "date": 1627737337944,
        "description": "Previous the bot gave the role \"A role\", to users, automatically giving a role out [plays havok](https://i.imgur.com/kucMopA.png) with discord's server verification level. The feature has been removed."
    },
    {
        "title": "Slash commands!",
        "date": 1627930057182,
        "description": "I've implemented the basics so slash commands can be used via the bot, most of the commands are not working with slash commands yet, but they will be soon."
    },
    {
        "title": "More slash commands!",
        "date": 1628007269000,
        "description": "I've made loadsss more commands work as slash commands now! :D"
    },
    {
        "title": "Autorole is back!",
        "date": 1628457526000,
        "description": "I improved the way the member role is given out, so the role is given automatically again!"
    },
    {
        "title": "Delete logs!",
        "date": 1628629444433,
        "description": "~~They work again~~"
    },
    {
        "title": "Improve twitch embeds",
        "date": 1628865724946,
        "description": "The overall twitch embed now looks prettier, the timings are also formatted better :)"
    },
    {
        "title": "Snipe improvements",
        "date": 1628870851352,
        "description": "The snipe command now looks nicer, and works with slash commands!"
    },
    {
        "title": "Image command improvements",
        "date": 1629287986702,
        "description": "The bot now checks more thoroughly to see if an image URL is actually an image URL, better results!"
    },
    {
        "title": "Bug fixes!",
        "date": 1629643662613,
        "description": "Loads of bugs have been now fixed, thanks to the wonderful testing by honkserini!"
    },
    {
        "title": "Twitch notification improvements!",
        "date": 1629713042181,
        "description": "The bot now only notifies for the correct person :D and shows a thumbnail in the embed now :)"
    },
    {
        "title": "Allow admins to snipe bot owners",
        "date": 1629904328867,
        "description": "Not the peasants though, only admins ;)"
    },
    {
        "title": "Lookup command!",
        "date": 1630427009569,
        "description": "Works with slash commands now :D and the logic is a licle better"
    },
    {
        "title": "Define Command!",
        "date": 1630946905931,
        "description": "There's now a little define command, to define any word you'd like!"
    },
    {
        "title": "Mute command punishment system revamp!",
        "date": 1631308467318,
        "description": "Kick and ban have been improved, unban is now a thing, a mute command is now a thing, and all these commands now can have durations instead of just being perms!"
    },
    {
        "title": "Settings upgrade",
        "date": 1631366187142,
        "description": "Settings are a lot easier to change now with slash commands!"
    },
    {
        "title": "Modlog upgrades!",
        "date": 1631366221729,
        "description": "With the help of the settings upgrade, you can now log more events, to seperate channels!"
    },
    {
        "title": "Define command updates",
        "date": 1631463689390,
        "description": "The define command now uses buttons and select menus to make it easier to use!"
    },
    {
        "title": "Urban Dictionary Command",
        "date": 1631817660000,
        "description": "You can now search urban dictionary, just use /urban!"
    },
    {
        "title": "Threads!",
        "date": 1632430782562,
        "description": "The bot can now respond in threads!"
    },
    {
        "title": "Moderation command updates",
        "date": 1633210353765,
        "description": "Various bug fixes and updates!"
    },
    {
        "title": "Reaction roles!",
        "date": 1638964224687,
        "description": "The bot can now do reaction roles, set it up with /settings roles"
    },
    {
        "title": "Timeouts!",
        "date": 1640625417427,
        "description": "The /mute command now uses the new timeout feature! No more muted role :D"
    },
    {
        "title": "Various Updates",
        "date": 1645886908721,
        "description": "The bot has been updated to the newest version of discord.js, along with some other refractoring changes"
    }
]